{
    "headers": [
        { "value": "Name", "type": "string"},
        { "value": "Breed", "type": "string"},
        { "value": "Sex", "type": "string" },
        { "value": "Age", "type": "int"},
        { "value": "Shots", "type": "bool"},
        { "value": "Declawed", "type": "bool"},
        { "value": "Owners", "type": "object"},
        { "value": "Notes", "type": "object"}
    ],
    "records": [
        [
            "Jeff",
            "British Shorthair",
            "Male",
            1,
            false,
            true,
            {},
            {}
        ],[
            "Deltrice, The Most Grand",
            "Persian",
            "Female",
            1000,
            true,
            true,
            {},
            {}
        ],[
            "Sammy",
            "Siamese",
            "Male",
            4,
            true,
            false,
            {},
            {}
        ]
    ]
}