{
    "headers": [
        { "value": "Name", "type": "string"},
        { "value": "Species", "type": "string"},
        { "value": "Sex", "type": "string" },
        { "value": "Age", "type": "int"},
        { "value": "Owners", "type": "object"},
        { "value": "Notes", "type": "object"}
    ],
    "records": [
        [
            "Polly",
            "Parakeet",
            "Female",
            60,
            {},
            {}
        ],[
            "Freddy",
            "Salamander",
            "Female",
            2,
            {},
            {}
        ],[
            "Doug",
            "Horse",
            "Male",
            4,
            {},
            {}
        ]
    ]
}